Division,WeightClassKg,Place,Name,Team,BodyweightKg,Best3SquatKg,Best3BenchKg,Best3DeadliftKg,TotalKg,Equipment,Event,Sex
Boys,51.71,1,Seth Shipp,Rice,51.62,136.08,77.11,122.47,335.66,Single-ply,SBD,M
Boys,51.71,2,Ethan Stack,Scurry-Rosser,49.99,122.47,72.57,136.08,331.12,Single-ply,SBD,M
Boys,51.71,3,Sonny Simons,Huntington,51.07,81.65,52.16,108.86,242.67,Single-ply,SBD,M
Boys,51.71,4,Brice Roundtree,Madisonville,42.37,90.72,43.09,88.45,222.26,Single-ply,SBD,M
Boys,55.79,1,Diego Rivera,Mexia,53.16,176.9,90.72,161.03,428.64,Single-ply,SBD,M
Boys,55.79,2,Corbin Donoho,Corsicana Mildred,55.43,127.01,74.84,142.88,344.73,Single-ply,SBD,M
Boys,55.79,3,Alex Rodriguez #9,Fairfield,55.7,136.08,68.04,138.35,342.46,Single-ply,SBD,M
Boys,55.79,4,Bobby Sanchez,Centerville,55.34,129.27,61.23,142.88,333.39,Single-ply,SBD,M
Boys,55.79,5,Adam Montemayor,Lorena,55.61,122.47,79.38,131.54,333.39,Single-ply,SBD,M
Boys,55.79,6,Michael Rosales,Rusk,54.79,131.54,68.04,129.27,328.85,Single-ply,SBD,M
Boys,55.79,7,Desmond Walls,Madisonville,53.89,108.86,70.31,140.61,319.78,Single-ply,SBD,M
Boys,55.79,8,Phiben McDonald,Terrell,54.16,102.06,63.5,131.54,297.1,Single-ply,SBD,M
Boys,55.79,9,Travis Berryhill,Blooming Grove,55.34,104.33,65.77,113.4,283.5,Single-ply,SBD,M
Boys,55.79,10,Chad Collup,Scurry-Rosser,54.52,97.52,58.97,120.2,276.69,Single-ply,SBD,M
Boys,59.87,1,Jalil Muhammed,Teague,56.7,158.76,90.72,163.29,412.77,Single-ply,SBD,M
Boys,59.87,2,Josh Williams,Troup,59.69,149.69,61.23,181.44,392.36,Single-ply,SBD,M
Boys,59.87,3,Daniel Gannaway,Madisonville,59.78,158.76,61.23,167.83,387.82,Single-ply,SBD,M
Boys,59.87,4,Luis Laborador,Kerens,58.33,117.93,88.45,156.49,362.87,Single-ply,SBD,M
Boys,59.87,5,Juan Perez #12,Rice,59.33,136.08,77.11,129.27,342.46,Single-ply,SBD,M
Boys,59.87,6,Michael McCarter,Blooming Grove,59.69,113.4,63.5,145.15,322.05,Single-ply,SBD,M
Boys,67.13,1,Ellis Reyes,Madisonville,64.5,167.83,124.74,181.44,474,Single-ply,SBD,M
Boys,67.13,2,David Dilbeck,Blooming Grove,65.86,167.83,113.4,190.51,471.74,Single-ply,SBD,M
Boys,67.13,3,Ke'Un Mays,Terrell,65.86,154.22,90.72,190.51,435.45,Single-ply,SBD,M
Boys,67.13,4,Jose Rodriguez #4,Fairfield,66.13,167.83,83.91,183.7,435.45,Single-ply,SBD,M
Boys,67.13,5,Jose Garcia #6,Terrell,63.59,158.76,104.33,167.83,430.91,Single-ply,SBD,M
Boys,67.13,6,Ulisses Ramirez,Fairfield,63.96,181.44,77.11,165.56,424.11,Single-ply,SBD,M
Boys,67.13,7,Chris Soria,Buffalo,65.59,156.49,90.72,161.03,408.23,Single-ply,SBD,M
Boys,67.13,8,Dillon Beshears,Buffalo,63.23,149.69,86.18,151.95,387.82,Single-ply,SBD,M
Boys,67.13,9,Manuel Villegas,Blooming Grove,62.96,131.54,92.99,138.35,362.87,Single-ply,SBD,M
Boys,67.13,10,Ty Bachtel,Fairfield,67.13,136.08,83.91,138.35,358.34,Single-ply,SBD,M
Boys,74.84,1,Leo Guerrero,Trinity,72.85,204.12,122.47,210.92,537.51,Single-ply,SBD,M
Boys,74.84,2,Sergio Villareal,Centerville,71.58,208.65,113.4,190.51,512.56,Single-ply,SBD,M
Boys,74.84,3,Sammy Servantes,Buffalo,74.12,185.97,113.4,210.92,510.29,Single-ply,SBD,M
Boys,74.84,4,Jacob McLean,Scurry-Rosser,71.21,197.31,120.2,188.24,505.76,Single-ply,SBD,M
Boys,74.84,5,Abraham Sanchez,Centerville,72.12,174.63,124.74,204.12,503.49,Single-ply,SBD,M
Boys,74.84,6,Ramiro Martinez,Troup,74.66,170.1,111.13,217.72,498.95,Single-ply,SBD,M
Boys,74.84,7,Da'Michael Harvey,Kerens,72.85,192.78,104.33,174.63,471.74,Single-ply,SBD,M
Boys,74.84,8,Elder Arellano,Rice,71.67,158.76,117.93,172.37,449.06,Single-ply,SBD,M
Boys,74.84,9,Jacob Hamilton,Fairfield,73.12,181.44,92.99,174.63,449.06,Single-ply,SBD,M
Boys,74.84,10,Ulices Guererro,Buffalo,68.49,156.49,83.91,172.37,412.77,Single-ply,SBD,M
Boys,74.84,11,Elliot Worsham,Italy,67.95,158.76,83.91,163.29,405.97,Single-ply,SBD,M
Boys,74.84,12,Cody McCaleb,Kerens,71.85,149.69,79.38,156.49,385.55,Single-ply,SBD,M
Boys,82.1,1,Myles McGruder,Groesbeck,82.1,215.46,106.59,222.26,544.31,Single-ply,SBD,M
Boys,82.1,2,Preston Bozeman,Huntington,76.38,210.92,111.13,215.46,537.51,Single-ply,SBD,M
Boys,82.1,3,Dylan Myers,Rice,80.83,199.58,136.08,188.24,523.9,Single-ply,SBD,M
Boys,82.1,4,Jacob Moore,Athens,80.38,215.46,115.67,183.7,514.83,Single-ply,SBD,M
Boys,82.1,5,Hunter Morgan,Italy,81.37,201.85,113.4,195.04,510.29,Single-ply,SBD,M
Boys,82.1,6,Ian Morrow,Madisonville,82.1,190.51,111.13,190.51,492.15,Single-ply,SBD,M
Boys,82.1,7,Justin Sander,Fairfield,76.38,183.7,95.25,183.7,462.66,Single-ply,SBD,M
Boys,82.1,8,Tyler Parker,Centerville,79.74,156.49,113.4,183.7,453.59,Single-ply,SBD,M
Boys,82.1,9,Zeke Ceron,Buffalo,80.65,147.42,81.65,145.15,374.21,Single-ply,SBD,M
Boys,82.1,10,Taken Velinowski,New Waverly,77.11,129.27,74.84,133.81,337.93,Single-ply,SBD,M
Boys,82.1,DQ,Hector Dominguez,Buffalo,78.38,,,,,Single-ply,SBD,M
Boys,89.81,1,Brandon Dickerson,Huntington,84.91,195.04,154.22,235.87,585.13,Single-ply,SBD,M
Boys,89.81,2,Johnny Bustamante,Blooming Grove,88.72,233.6,129.27,206.38,569.26,Single-ply,SBD,M
Boys,89.81,3,Brandon Amaya,Fairfield,86.82,238.14,120.2,192.78,551.11,Single-ply,SBD,M
Boys,89.81,4,Corbin Rodriguez,Madisonville,86.73,192.78,129.27,206.38,528.44,Single-ply,SBD,M
Boys,89.81,5,Hunter Isham,Lorena,85.46,192.78,115.67,215.46,523.9,Single-ply,SBD,M
Boys,89.81,6,Hunter Hartberg,Lorena,87.27,197.31,129.27,181.44,508.02,Single-ply,SBD,M
Boys,89.81,7,Brandon Madison,Centerville,87.54,181.44,136.08,190.51,508.02,Single-ply,SBD,M
Boys,89.81,8,Derian Guzman,Centerville,88.81,185.97,131.54,190.51,508.02,Single-ply,SBD,M
Boys,89.81,9,Ashton Henry,Grapeland,87,192.78,99.79,197.31,489.88,Single-ply,SBD,M
Boys,89.81,10,Jose Hernandez #7,Centerville,82.83,181.44,95.25,204.12,480.81,Single-ply,SBD,M
Boys,89.81,11,Cameron Williams #6,Centerville,83.01,172.37,117.93,190.51,480.81,Single-ply,SBD,M
Boys,89.81,12,Bradley Heirell,New Waverly,83.46,165.56,115.67,199.58,480.81,Single-ply,SBD,M
Boys,89.81,13,Pablo Pachuca,Kerens,89.45,185.97,95.25,192.78,474,Single-ply,SBD,M
Boys,89.81,14,Juan Quesada,Fairfield,89.72,181.44,115.67,158.76,455.86,Single-ply,SBD,M
Boys,99.79,1,David Caddie,Livingston,96.07,274.42,158.76,272.16,705.34,Single-ply,SBD,M
Boys,99.79,2,Jeremiah Robertson,Huntington,95.35,272.16,142.88,249.48,664.51,Single-ply,SBD,M
Boys,99.79,3,Enrique Zamora,Corsicana Mildred,98.52,267.62,142.88,226.8,637.3,Single-ply,SBD,M
Boys,99.79,4,Kyle Haynes #2,Livingston,93.8,238.14,149.69,226.8,614.62,Single-ply,SBD,M
Boys,99.79,5,Reece Clark,Troup,99.43,256.28,129.27,217.72,603.28,Single-ply,SBD,M
Boys,99.79,6,Anthony Chaney,Huntsville,90.17,219.99,131.54,229.06,580.6,Single-ply,SBD,M
Boys,99.79,7,Rahi Patel,Mexia,90.63,204.12,120.2,199.58,523.9,Single-ply,SBD,M
Boys,99.79,8,Matt Mooneyham,Fairfield,95.71,192.78,127.01,204.12,523.9,Single-ply,SBD,M
Boys,99.79,9,Justin Horn #1,Corsicana Mildred,90.81,215.46,111.13,176.9,503.49,Single-ply,SBD,M
Boys,99.79,10,Zane Gifford,Rice,99.79,158.76,86.18,215.46,460.4,Single-ply,SBD,M
Boys,99.79,11,Jason Garcia,Blooming Grove,91.17,181.44,102.06,167.83,451.32,Single-ply,SBD,M
Boys,99.79,12,Alex Dublin,New Waverly,91.81,147.42,104.33,165.56,417.3,Single-ply,SBD,M
Boys,99.79,DQ,Kolin Seward,Livingston,96.89,251.74,,,,Single-ply,SBD,M
Boys,109.77,1,Eli Crawford,Kerens,108.05,276.69,136.08,254.01,666.78,Single-ply,SBD,M
Boys,109.77,2,Ryan Coleman,Fairfield,106.68,272.16,136.08,226.8,635.03,Single-ply,SBD,M
Boys,109.77,3,Marcus Williams #2,Teague,100.7,242.67,122.47,249.48,614.62,Single-ply,SBD,M
Boys,109.77,4,Dalton Cyr,Huntsville,108.23,240.4,138.35,226.8,605.55,Single-ply,SBD,M
Boys,109.77,5,Cole Brumley,Huntsville,107.95,235.87,127.01,217.72,580.6,Single-ply,SBD,M
Boys,109.77,6,Jacob Byrd #3,Lorena,107.41,244.94,122.47,206.38,573.79,Single-ply,SBD,M
Boys,109.77,7,Jax Donohoo,Fairfield,109.32,238.14,124.74,204.12,566.99,Single-ply,SBD,M
Boys,109.77,8,Mike Cervantes,Lorena,107.41,204.12,122.47,231.33,557.92,Single-ply,SBD,M
Boys,109.77,9,Jace Lowe,Hemphill,101.33,174.63,127.01,183.7,485.34,Single-ply,SBD,M
Boys,124.74,1,Ja'Coby Paul,Terrell,115.39,256.28,170.1,235.87,662.24,Single-ply,SBD,M
Boys,124.74,2,Xavier Murray,Huntsville,122.92,272.16,158.76,226.8,657.71,Single-ply,SBD,M
Boys,124.74,3,Jeremy Wood,Fairfield,114.03,265.35,151.95,192.78,610.08,Single-ply,SBD,M
Boys,124.74,4,Trac DeLeon,Hemphill,110.31,222.26,117.93,217.72,557.92,Single-ply,SBD,M
Boys,124.74,5,Kedar Gordon,Livingston,112.58,226.8,97.52,231.33,555.65,Single-ply,SBD,M
Boys,124.74,6,Reese McGraw,Hemphill,112.13,156.49,102.06,154.22,412.77,Single-ply,SBD,M
Boys,124.74,DQ,Timothy Collums,Corsicana Mildred,112.31,213.19,136.08,,,Single-ply,SBD,M
Boys,124.74,DQ,Benito Rivas,Buffalo,120.29,,,,,Single-ply,SBD,M
Boys,124.74+,1,Terry Carter,Livingston,151.23,292.57,158.76,294.84,746.16,Single-ply,SBD,M
Boys,124.74+,2,Dawson Smith,Huntsville,130.82,288.03,192.78,244.94,725.75,Single-ply,SBD,M
Boys,124.74+,3,Richard Bennett,Hemphill,131.27,242.67,158.76,226.8,628.23,Single-ply,SBD,M
Boys,124.74+,4,Dalton Hatcher,Scurry-Rosser,170.73,247.21,145.15,217.72,610.08,Single-ply,SBD,M
Boys,124.74+,5,Trederek Anglin,Mexia,146.69,226.8,147.42,222.26,596.47,Single-ply,SBD,M
Boys,124.74+,6,Joel Barbosa,Grapeland,125.28,235.87,124.74,210.92,571.53,Single-ply,SBD,M
Boys,124.74+,7,Malik Gilliam,Troup,163.11,244.94,111.13,215.46,571.53,Single-ply,SBD,M
Boys,124.74+,8,Kenny Searcy,Centerville,126.28,192.78,136.08,226.8,555.65,Single-ply,SBD,M
Boys,124.74+,9,James Hardy,Troup,129,231.33,124.74,172.37,528.44,Single-ply,SBD,M
Boys,124.74+,10,Coby Wilbanks,Rusk,144.15,217.72,127.01,181.44,526.17,Single-ply,SBD,M
Boys,124.74+,11,Kevin Leonara,New Waverly,160.48,156.49,90.72,199.58,446.79,Single-ply,SBD,M
Boys,124.74+,DQ,Trey Simpson,Fairfield,125.28,238.14,136.08,226.8,,Single-ply,SBD,M
