﻿Весовая категория до,47,кг
1,Козьменко Анастасия,1992,кмс,Брянск «Олимп»,44.05,92.5,40,110,242.5,1,Леонов В.С.
2,Маскевич Александра,1999,1-ю,п. Локоть,42.50,52.5,32.5,70,155,+3,Бирюков В.Н.
3,Макеева Екатерина,1998,1,Суземка,45.00,72.5,32.5,50,155,3,Коротченков Е.А.
Весовая категория до,52,кг
1,Феденкова Екатерина,1996,б/р,Суземка,49.35,97.5,40,112.5,250,+1,Андреенко Н.Н.
2,Ковалева Светлана,1999,1,Климово,48.95,87.5,45,100,242.5,1,Гулидова М.А.
3,Чернолузская Виктория,1999,1,Климово,49.2,97.5,47.5,92.5,237.5,1,Гулидова М.А.
4,Шутова Наталья,1994,1,Локоть,50.45,75,55,102.5,232.5,1,Бирюков В.Н.
5,Белоброва Александра,1999,1,Клинцы,51.00,85,42.5,100,227.5,1,Болтунов А.Н.
6,Прус Наталья,1997,2,Климово,52.00,95,40,92.5,227.5,+1,Гулидова М.А.
7,Телегина Юлия,1987,2,Погар,50.95,105,0,-,-,Красин Ю.Н..
Весовая категория до,57,кг
1,Мирошник Алина,1995,1,Жуковка,54.95,110,45,120,275,1,Мосин Е.А.
2,Подвойская Кристина,1998,2,Клинцы,55.7,0,80,42.5,105,227.5,+1,Болтунов А.Н.
3,Лактюшина Виктория,1999,3,п. Локоть,56.9,0,70,45,105,220,+2,Бирюков В.Н.
4,Гапейкина Ольга,1988,б/р,Брянский р-н,54.0,0,80,30,90,200,+2,Петрушин С.А.
5,Полякова Галина,2003,3-ю,Климово,56.20,55,32.5,65,152.5,+2юн,Поляков Ф.В.
Весовая категория до,63,кг
1,Кибикина Алла,1985,б/р,Брянский р-н,62.85,90,37.5,105,232.5,+2,Остапенко Д.О.
2,Соломатина Марина,1984,1,Суземка,60.35,85,37.5,102.5,225,2,Заложков С.В.
3,Кузенкова Евгения,1998,1,Суземка,62.95,85,35,105,225,2,Коротченков Е.А.
Весовая категория до,72,кг
1,Заложкова Юлия,1987,мс,Суземка,70.90,170,87.5,170,427.5,мс,Заложков С.В.
2,Николаенко Алина,1998,кмс,Климово,71.00,155,87.5,140,382.5,кмс,Ермаченко А.В.
3,Слатова Татьяна,1981,кмс,Брянск «Олимп»,67.30,140,85,142.5,367.5,кмс,Леонов В.С.
4,Журавкова Алена,1998,1,Суземка,71.35,127.5,60,132.5,320,1,Коротченков Е.А.
5,Брягиня Татьяна,1997,2,Брянск «Олимп»,69.40,140,45,120,305,+1,Леонов В.С.
Весовая категория до,84,кг
1,Приходкина Ирина,1983,мс,Суземка,72.10,145,95,150,390,1,Коротченков А.А.
2,Белосвет Ольга,1990,2,Суземка,73.15,120,50,157.5,327.5,1,Заложков С.В.
3,Потапова Елена,1976,1,Суземка,75.85,142.5,55,110,317.5,2,Коротченков А. А.,
DQ,Саматова Ольга,1972,кмс,Навля,78.80,167.5,107.5,0,-,Карнюшин О.Н.
Весовая категория до +,84,кг
1,Дукачева Евгения,1983,мсмк,Суземка,91.45,180,100,200,480,мс,Андреенко Н.Н.
2,Котова Екатерина,1993,мс,Климово,86.50,160,110,140,410,1,Ермаченко А.В.,
3,Бокова Марина,1989,б/р,Суземка,101.50,150,52.5,150,352.5,1,Заложков С.В.
Чемпионат Брянской области по пауэрлифтингу среди мужчин
№ место
Весовая категория до,59,кг
1,Айрапетян Левон,1992,кмс,Суземка,59.00,172.5,100,175,447.5,1,Заложков С.В..
2,Макриденко Никита,1997,1,Клинцы,58.15,150,100,180,430,1,Болтунов А.Н.,
3,Самусенко Вадим,1997,1,Клинцы,57.50,140,95,165,400,1,Болтунов А.Н.
4,Коренков Виктор,1992,б/р,Брянский р-н,58.85,145,85,150,380,+1,Петрушин С.А.
5,Петросян Арам,1996,3,Локоть,53.25,125,90,160,375,+1,Бирюков В.Н.
6,Лукьяненко Владислав,1998,2,Клинцы,58.30,135,90,145,370,+1,Болтунов А.Н.
7,Борисенков Сергей,1996,2,Брянский р-н,58.35,135,77.5,155,367.5,+1,Петрушин С. А.
8,Черняк Юрий,1998,3,Погар,54.40,130,92.5,140,362.5,+1,Красин Ю.Н..
9,Рябцев Иван,1998,2,Суземка,57.55,137.5,75,150,362.5,+1,Заложков С.В.. 
10,Коноплянко Артем,1997,2,Клинцы,58.05,130,72.5,150,352.5,2,Болтунов А.Н.
11,Плугин Никита,1999,2-ю,Погар,59.00,132.5,82.5,135,350,+2,Красин Ю.Н..
12,Романенко Артем,2000,2-ю,Климово,51.10,95,57.5,100,252.5,2-ю,Ермаченко А.В.
13,Завьялов Владимир,1996,2,Локоть,57.25,135,120,-,147.5,0,-,Бирюков В.Н.
Весовая категория до,66,кг,
1,Кудлай Иван,1995,1,Суземка,65.25,170,105,172.5,447.5,1,Коротченков А.А.
2,Савченко Николай,1997,1,Клинцы,65.60,150,75,210,435,1,Болтунов А.Н.
3,Остроглазов Игорь,1993,1,Локоть,62.75,140,110,180,430,1,Бирюков В.Н.
4,Маркин Кирилл,1999,2,Климово,65.20,170,95,160,425,+1,Маркин А.В..
Гулидова М.А.
5,Лобосок Владислав,1997,2,Унеча,64.95,137.5,107.5,165,410,+1,Фролов А.Е..
Титенок В.В.
6,Яковец Ярослав,1998,б/р,Клинцы,64.55,140,85,155,380,+2,Болтунов А.Н.
Весовая категория до,74,кг
1,Слайковский Владислав,1996,КМС,Климово,70.95,245,180,237.5,662.5,КМС,Ермаченко А.В.
2,Дулепов Александр,1993,МС,Суземка,66.10,247.5,165,220,632.5,КМС,Заложков С.В.
3,Егорин Игорь,1989,КМС,Дятьково,68.75,220,150,210,580,КМС,Смолко В.Г.
4,Савельев Игорь,1995,1,Климово,71.50,212.5,130,195,537.5,КМС,Ермаченко А.В.
5,Бутримов Алексей,1992,КМС,Брянский р-н,74.0,210,130,197.5,537.5,КМС,Петрушин С.А.
6,Мищенков Илья,1994,1,БГИТА,72.10,200,120,210,530,1,Зезюля В.С.
7,Осипенко Евгений,1993,КМС,Брянский р-н,73.15,185,140,200,525,1,Петрушин С.А.
8,Голанов Александр,1997,1,Суземка,69.50,177.5,100,205,482.5,1,Коротченков Е.А.
9,Задеев Александр,1996,3,Локоть,72.20,180,115,180,475,1,Бирюков В.Н.
10,Горбачев Дмитрий,1999,1-ю,Погар,71.65,160,110,170,440,1,Красин Ю.Н..
11,Скупяко Максим,1994,б/р,Брянск «Олимп»,72.25,155,95,170,420,2,Трусов С.Н.
12,Слонский Евгений,1997,2-ю,Погар,72.00,140,97.5,160,397.5,2,Красин Ю.Н..
Весовая категория до,83,кг,
1,Леонов Вячеслав,1984,мс,Брянск «Олимп»,82.95,280,200,260,740,кмс,Трусов С.Н.
2,Асеев Кирилл,1992,кмс,Брянский р-н,82.45,280,150,292.5,722.5,кмс,Петрушин С.А.
3,Ковалев Владислав,1996,кмс,Климово,82.95,272.5,150,275,697.5,кмс,Ермаченко А.В.
4,Колабников Владимир,1992,мс,Брянский р-н,83.00,270,150,277.5,697.5,кмс,Петрушин С.А.
5,Лобанов Иван,1995,1,Суземка,76.95,210,122.5,230,562.5,1,Заложков С.В.
6,Привольнев Вячеслав,1997,2,Жуковка,80.65,205,125,210,540,1,Мосин Е.А.
7,Гладков Сергей,1994,1,Суземка,82.00,200,125,190,515,2,Любезная Г.Н.
8,Дербенев Михаил,1995,2,Брянск «Олимп»,77.65,170,120,180,470,2,Леонов В.С.
9,Масленко Александр,1998,2-ю,Погар,82.90,140,95,170,405,3,Красин Ю.Н..
G,Шилкин Михаил,1967,б/р,Фокино,92.90,260,165,230,655,+кмс,Самостоятельно
Весовая категория до,93кг,
1,Игнатенков Владимир,1991,мс,Суземка,90.50,282.5,207.5,270,760,кмс,Заложков С.В.
2,Алхимов Константин,1977,кмс,Брянск «Олимп»,91.70,280,195,240,715,кмс,Трусов С.Н.
3,Мачулин Петр,1992,кмс,Суземка,87.45,240,172.5,255,667.5,кмс,Заложков С.В.
4,Моисеенко Иван,1997,1,Климово,90.80,250,152.5,230,632.5,+кмс,Ермаченко А.В.
5,Полехин Александр,1986,кмс,Брянск «Олимп»,91.80,250,160,220,630,кмс,Трусов С.Н.
6,Осипенко Юрий,1995,б/р,Брянский р-н,92.75,227.5,172.5,210,610,+кмс,Петрушин С.А.
7,Суховьев Роман,1994,кмс,Климово,92.95,230,167.5,212.5,610,кмс,Ермаченко А.В.
8,Крутилин Станислав,1992,кмс,Брянский р-н,92.85,230,170,210,610,кмс,Петрушин С.А.
9,Ганнусенко Юрий,1993,б/р,Брянск «Олимп»,89.40,170,130,180,480,2,Леонов В.С.
10,Джавахия Георгий,1995,б/р,Брянск «Олимп»,92.35,140,130,175,445,3,Леонов В.С.
11,Кулешов Антон,1985,б/р,Брянск «Олимп»,83.85,155,115,165,435,3,Трусов С.Н.,
12,Сарачев Максим,1994,б/р,Брянск «Олимп»,89.90,125,90,145,360,2-ю,Трусов С.Н.
13,Космач Виктор,1994,кмс,Брянск «Олимп»,89.15,-200,-,-,-,Леонов В.С.
Весовая категория до105кг,
1,Клинковский Денис,1982,мс,Брянск «Олимп»,105.0,325,225,280,830,мс,Трусов С.Н.
2,Терехов Николай,1992,кмс,БГИТА,100.90,310,190,290,790,кмс,Зезюля В.С.
3,Криволап Михаил,1994,мс,Климово,96.00,305,205,272.5,782.5,кмс,Ермаченко А.В.
4,Пыхов Сергей,1992,кмс,Брянский р-н,100.85,300,170,280,750,кмс,Петрушин С.А.
5,Зернов Александр,1982,кмс,Брянск «Олимп»,96.25,280,180,250,710,кмс,Леонов В.С.
6,Кульминский Андрей,1970,кмс,Брянский р-н,102.40,280,190,220,690,кмс,Петрушин С.А.
7,Мельниченко Александр,1995,1,Климово,103.25,277.5,187.5,225,690,+кмс,Гулидова М.А.
8,Васюков Павел,1995,кмс,Брянский р-н,99.65,250,155,200,605,1,Петрушин С.А.
9,Кондратенко Сергей,1988,мс,Брянск «Олимп»,97.25,290,-205,-,-,-,Леонов В.С..
Весовая категория до,120кг,
1,Мамошин Александр,1983,кмс,Суземка,114.80,300,235,277.5,812.5,кмс,Заложков С.В.
2,Волович Игорь,1992,кмс,БГИТА,108.70,310,190,310,810,кмс,Зезюля В.С.
3,Ретунский Андрей,1977,кмс,Брянск «Олимп»,118.70,280,185,270,735,+кмс,Еремин Г.А.
4,Степин Кирилл,1982,б/р,Климово,118.15,250,200,250,700,+кмс,Ермаченко А.В.
5,Руднев Иван,1988,1,Локоть,115.25,232.5,142.5,265,640,1,Бирюков В.Н.
6,Цуприков Иван,1995,б/р,Суземка,112.50,210,110,200,520,3,Кондрашов О.В.
Весовая категория до +120кг
1,Возьный Виталий,1977,мс,Брянский р-н,120.20,400,295,327.5,1022.5,мсмк,Петрушин С.А.
2,Павленко Андрей,1990,б/р,Брянский р-н,128.20,235,175,250,660,1,Петрушин С.А.
3,Светильников Владимир,1976,б/р,Суземка,128.85,232.5,140,255,627.5,2,Самостоятельно
﻿
Чемпионат Брянской области по жиму лежа  среди мужчин и женщин




25-27 апреля 2014 г.                                                       п. Суземка

Итоговый протокол
Чемпионата Брянской области по жиму лежа среди женщин
25-27 апреля 2014 г.                                                                                                                                                                                 п. Суземка
№ место
Фамилия, имя
Год рожд.
Звание, разряд
Район
Соб. вес
Жим
тренера
Весовая категория до 47 кг
1         Козьменко Анастасия       1992        кмс           Брянск «Олимп»      44,05          40             Леонов В.С.
2         Маскевич Александра      1999        1-ю           п. Локоть                  42,50         32,5            Бирюков В.Н.
3         Макеева Екатерина           1998        1                Суземка                   45,00         32,5            Коротченков Е.А.
                                                                                                Весовая категория до 52 кг
1         Шутова Наталья                 1994       1                 Локоть                      50,45               55        Бирюков В.Н.
2         Чернолузская Виктория    1999       1                 Климово                   49,2                 47,5     Гулидова М.А.
3         Ковалева Светлана            1999       1                 Климово                   48,95                45       Гулидова М.А.
4        Белоброва Александра       1999       1                 Клинцы                    51,00                42,5     Болтунов А.Н.
5         Феденкова Екатерина       1996       б/р              Суземка                    49,35                40       Андреенко Н.Н.
6        Прус Наталья                       1997      2                 Климово                   52,00                40        Гулидова М.А.
-        Телегина Юлия                    1987      2                 Погар                        50,95            - 52,5       Красин Ю.Н.,
                                                                                                                                                                 Федосеенко А.Н.
                                                                                                   Весовая категория до 57 кг
1         Мирошник Алина               1995     1                  Жуковка                    54,95        45               Мосин Е.А.        
2         Лактюшина Виктория         1999    3                  п. Локоть                   56,90        45             Бирюков В.Н.
3         Подвойская Кристина         1998    2                  Клинцы                      55,70       42,5           Болтунов А.Н.
4         Полякова Галина                  2003     3-ю            Климово                    56,20       32,5           Поляков Ф.В.
5         Гапейкина Ольга                  1988    б/р              Брянский р-н            54,0 0       30             Петрушин С.А.
                                                                                                                                                               Остапенко Д.О.
                                                                                                 Весовая категория до 63 кг
1        Кибикина Алла                      1985     б/р              Брянский р-н             62,85      37,5          Остапенко Д.О.
2       Соломатина Марина              1984     1                  Суземка                      60,35      37,5          Заложков С.В.
3        Кузенкова Евгения                1998     1                 Суземка                      62.95        35          Коротченков Е.А.           
                                                                                                    Весовая категория до 72 кг
1        Заложкова Юлия                   1987      мс               Суземка                     70,90           87,5        Заложков С.В.
2        Николаенко Алина                1998      кмс            Климово                     71,00           87,5        Ермаченко А.В.
3       Слатова Татьяна                     1981      кмс            Брянск «Олимп»        67,30           85           Леонов В.С.
4       Журавкова Алена                   1998      1                Суземка                       71,35          60           Коротченков Е.А.
5       Брягиня Татьяна                     1997      2                Брянск «Олимп»         69,40          45          Леонов В.С.
                                                                                                     Весовая категория до 84 кг
1      Саматова Ольга                    1972     кмс             Навля                            78,80        107,5         Карнюшин О.Н. 
2       Приходкина Ирина             1983     мс               Суземка                         72,10           95            Коротченков А.А.
3       Потапова Елена                   1976    1                  Суземка                         73,00          55            Коротченков А.А.
4       Белосвет Ольга                   1990      2                 Суземка                         73,15          50            Заложков С.В.
 
                                                                                                     Весовая категория до + 84 кг
1         Котова Екатерина               1993      мс              Климово                     86,50       110           Ермаченко А.В.  
2         Дукачева Евгения               1983      мсмк          Суземка                      91,45       100          Андреенко Н.Н.
3         Бокова Марина                   1989      б/р              Суземка                     101,50       52,5         Заложков С.В.  
 






Главный судья                                                      Заложков С.В.

Главный секретарь                                             Коротченков Е.А.
Итоговый протокол
Чемпионата Брянской области по жиму лежа среди мужчин
25-27 апреля 2014 г                                                                                                                                            п. Суземка
№ место
Фамилия, имя
Год рожд.
Звание, разряд
Район
Соб. вес
Жим
тренера

Весовая категория до 59 кг
1          Завьялов Владимир         1996        2              Локоть                     57,25        120            Бирюков В.Н.
2          Макриденко Никита       1997        1               Клинцы                   58,15        100            Болтунов А.Н.      
3           Айрапетян Левон            1992        кмс          Суземка                   59,00       100            Заложков С.В.,
                                                                                                                                                           Заложкова Ю.Н.

4         Самусенко Вадим             1997        1               Клинцы                    57,50        95             Болтунов А.Н.
5         Черняк Юрий                    1998        3                Погар                       54,40       92,5           Красин Ю.Н.,
                                                                                                                                                            Федосеенко А.М.
6        Петросян Арам                 1996       3               Локоть                      53,25         90              Бирюков В.Н.
7        Лукьяненко Владислав    1998       2               Клинцы                     58,30        90              Болтунов А.Н.       
8        Коренков Виктор             1992        б/р           Брянский р-н            58,85        85               Петрушин С.А.         
9        Плугин Никита                  1999      2-ю           Погар                         59,00        82,5            Красин Ю.Н.,
                                                                                                                                                            Федосеенко А.М.
10      Борисенков Сергей           1996       2              Брянский р-н             58,35        77,5            Петрушин С. А.
11      Рябцев Иван                       1998      2              Суземка                      57,55        75               Заложков С.В., 	
                                                                                                                                                             Заложкова Ю.Н. 
12        Коноплянко Артем            1997      2               Клинцы                   58,05        72,5            Болтунов А.Н.       
13       Романенко Артем               2000      2-ю          Климово                   51,10        57,5            Ермаченко А.В.
                                                                                                   Весовая категория до 66кг  	
1         Остроглазов Игорь             1993        1              Локоть                    62,75        110              Бирюков В.Н.
2         Лобосок Владислав            1997        2              Унеча                      64,95        107.5           Фролов А.Е.,
                                                                                                                                                               Титенок В.В.
3         Кудлай Иван                        1995       1              Суземка                  65,25        105              Коротченков А.А.

4         Маркин Кирилл                  1999        2              Климово                 65,20         95                Маркин А.В.,
                                                                                                                                                               Гулидова М.А.
6         Яковец Ярослав                  1998       б/р            Клинцы                 64,55          85                 Болтунов А.Н.
7       Савченко Николай              1997       1                Клинцы                   65,60           75               Болтунов А.Н.
                                                                                                                                                                                                                   


                                                                                    Весовая категория до 74 кг
1     Сычев Сергей                         1978      МСМК     Брянск «Олимп»        70,25       245                Трусов С.Н.
2    Слайковский Владислав         1996      КМС           Климово                  70,95       180                Ермаченко А.В.
3      Дулепов Александр               1993       МС             Суземка                   66,10       165                Заложков С.В.
4     Апанасевич Дмитрий             1987       КМС          Брянск «Олимп»     69,15       165                Трусов С.Н.
5     Егорин Игорь                          1989      КМС          Дятьково                  68,75        150                 Смолко В.Г.
6     Осипенко Евгений                  1993      КМС          Брянский р-н           73,15        140                Петрушин С.А.
7      Савельев Игорь                      1995      1                 Климово                   71,50        130               Ермаченко А.В.
8      Бутримов Алексей                 1992      КМС        Брянский р-н               74,0         130               Петрушин С.А.
9     Мищенков Илья                      1994      1                БГИТА                       72,10        120               Зезюля В.С.
10    Задеев Александр                  1996      3                Локоть                       72,20         115               Бирюков В.Н.
11    Горбачев Дмитрий                 1999      1-ю             Погар                       71,65         110                Красин Ю.Н.,
                                                                                                                                                                   Федосеенко А.М.
 12   Голанов Александр               1997         1               Суземка                     69,50         100               Коротченков Е.А.
 13    Слонский Евгений                1997         2-ю             Погар                       72,00         97,5               Красин Ю.Н.,
                                                                                                                                                                    Федосеенко А.М. 
14   Скупяко Максим                     1994         б/р          Брянск «Олимп»         72,25          95                 Трусов С.Н. 
   
                                                                                             Весовая категория до 83 кг                                                                                                              

1     Леонов Вячеслав                1984          мс                 Брянск «Олимп»      82,95          200         Трусов С.Н.
2     Асеев Кирилл                     1992          кмс               Брянский р-н            82,45          150         Петрушин С.А.
3     Ковалев Владислав            1996          кмс               Климово                    82,95         150          Ермаченко А.В.
4     Колабников Владимир      1992           мс                Брянский р-н             83,00         150         Петрушин С.А.
5     Привольнев Вячеслав        1997            2                 Жуковка                    80,65         125         Мосин Е.А.
6     Гладков Сергей                  1994            1                 Суземка                     82,00         125         Любезная Г.Н.
7     Лобанов Иван                     1995            1                 Суземка                     76,95       122,5        Заложков С.В.
8    Дербенев Михаил               1995            2                 Брянск «Олимп»       77,65         120          Леонов В.С.
9 Соловиченко Дмитрий          1990            2                 Брянск «Олимп»       80,50         110          Трусов С.Н.
10   Масленко Александр         1998            2-ю             Погар                         82,90          95           Красин Ю.Н.,
                                                                                                                                                                  Федосеенко А.М.
Л   Шилкин Михаил                  1967            б/р               Фокино                     92,90           165         Самостоятельно
                                                                                            
Весовая категория до 93кг
                                                                                                   
1    Игнатенков Владимир       1991            мс               Суземка                     90,50         207,5        Заложков С.В.
2   Алхимов Константин         1977           кмс              Брянск «Олимп»       91,70          195            Трусов С.Н.
3   Мачулин Петр                     1992           кмс              Суземка                     87,45          172,5         Заложков С.В.
4    Осипенко Юрий                 1995            б/р              Брянский р-н             92,75       172,5         Петрушин С.А.  
5    Крутилин Станислав         1992            кмс            Брянский р-н               92,85       170            Петрушин С.А.
6    Суховьев Роман                 1994             кмс            Климово                     92,95       167,5         Ермаченко А.В.
7    Полехин Александр           1986            кмс             Брянск «Олимп»       91,80        160         Трусов С.Н.

8   Моисеенко Иван                 1997             1                Климово                    90,80         152,5       Ермаченко А.В.
9   Космач Виктор                    1994            кмс             Брянск «Олимп»       89,15        140          Леонов В.С.
10   Ганнусенко Юрий             1993            б/р             Брянск «Олимп»       89,40         130          Леонов В.С.
11 Джавахия Георгий              1995            б/р              Брянск «Олимп»       92,35         130          Леонов В.С.
12  Кулешов Антон                 1985            б/р              Брянск «Олимп»       83,85         115          Трусов С.Н.               
13 Сарачев Максим                 1994            б/р              Брянск «Олимп»       89,90         90            Трусов С.Н.

                                                                                           	
                                                                                            Весовая категория до105кг                                                                                                      
1 Клинковский Денис             1982            мс               Брянск «Олимп»      105,0          225            Трусов С.Н.
2 Криволап Михаил                1994            мс               Климово                    96,00          205            Ермаченко А.В.
3 Терехов Николай                 1992           кмс              БГИТА                       100,90        190           Зезюля В.С.
4 Кульминский Андрей          1970          кмс              Брянский р-н             102,40        190            Петрушин С.А.
5 Мельниченко Александр     1995           1                 Климово                    103,25        187,5          Гулидова М.А.
6 Зернов Александр                1982          кмс              Брянск «Олимп»       96,25          180           Леонов В.С.
7 Пыхов Сергей                       1992          кмс              Брянский р-н             100,85        170          Петрушин С.А.	
8  Малашенко Никита             1998          2                  Погар                         95,15          160           Красин Ю.Н.,
                                                                                                                                                                Федосеенко А.М.       
9 Васюков Павел                     1995          кмс              Брянский р-н             99,65          155           Петрушин С.А.
- Кондратенко Сергей             1988           мс               Брянск «Олимп»       97,25          -205          Леонов В.С.,
                                                                                                                                                                 Еремин Г.А.    
                                                                                                                                                                                                                                                 
                                                                                            Весовая категория до 120кг                                                                                                            
1  Бычков Сергей                    1985          мс                Фокино                       106,95      275           Марочкин В.П.  
2   Мардашев Алексей            1993         кмс               БГИТА                        107,15     240            Зезюля В.С.
3 Петрушин Сергей                1981          мс                Брянский р-н              119,45     240            Заложков С.В.                                                                                                                                                                                                                                                     4 Мамошин Александр          1983           кмс              Суземка                     114,80      235             Заложков С.В. 
5 Степин Кирилл                    1982           б/р                Климово                    118,15      200             Ермаченко А.В.
6  Волович Игорь                    1992           кмс              БГИТА                       108,70     190              Зезюля В.С.
7  Ретунский Андрей              1977           кмс              Брянск «Олимп»       118,70      185             Еремин Г.А.
8 Руднев Иван                         1988            1                  Локоть                       115,25      142,5           Бирюков В.Н.
9 Цуприков Иван                    1995           б/р                Суземка                     112,50       110             Кондрашов О.В.
                                                                                                                                                                                                                                                 
                                                                                                                                                                                                                                                  
                                                                                            Весовая категория до +120кг                                                                                                 
                                                                                                                                                                                                                                                  1 Возьный Виталий               1977           мс                 Брянский р-н             120,20         295       Петрушин С.А.
2 Павленко Андрей               1990            б/р                Брянский р-н             128,20        175        Петрушин С.А.
3 Зинов Дмитрий                   1971            1                  Фокино                       177,70        152,5     Дрогобужев А.
4 Светильников Владимир   1976            б/р                Суземка                      128,85       140         Самостоятельно






Главный судья                                                      Заложков С.В.

Главный секретарь                                             Коротченков Е.А.



                                                                                                  

                                                                                                                                                                                                                        
