Name,Age,Division,BodyweightKg,WeightClassKg,Squat1Kg,Squat2Kg,Squat3Kg,Squat4Kg,Best3SquatKg,Bench1Kg,Bench2Kg,Bench3Kg,Bench4Kg,Best3BenchKg,Deadlift1Kg,Deadlift2Kg,Deadlift3Kg,Deadlift4Kg,Best3DeadliftKg,TotalKg,Event,BirthDate,Equipment,Sex,Place
Dylan Mortimer,26,M-O,104.8,110,160,165,172.5,,172.5,80,85,90,,90,180,190,200,,200,462.5,SBD,,Wraps,M,6
Jake Maguire,31,M-O,109.2,110,250,285,,,285,170,180,185,,185,200,220,230,,230,700,SBD,,Wraps,M,2
James Cox #1,42,M-M1-E,109,110,270,300,,,300,-220,-220,220,,220,140,220,245,,245,765,SBD,,Multi-ply,M,1
Robert Ralph,33,M-O,109.3,110,225,245,252.5,,252.5,135,145,152.5,,152.5,225,240,250,,250,655,SBD,,Wraps,M,4
Matthew Maguire,28,M-O,103.9,110,200,220,-240,,220,130,140,150,,150,240,260,272.5,,272.5,642.5,SBD,,Wraps,M,5
Cameron Heitzmann-Sehmi,21,M-J-E,89.5,90,280,300,320,,320,160,185,-200,,185,250,-280,280,,280,785,SBD,,Multi-ply,M,1
Marc Barnes,27,M-O-E,119.4,125,,,,,,,,,,,240,260,292.5,,292.5,292.5,D,,Multi-ply,M,1
Richard Cooling,38,M-O,135.3,140,220,-235,235,,235,130,140,150,,150,260,282.5,300,,300,685,SBD,,Wraps,M,1
Michael Jones #21,38,M-O,108.4,110,245,-260,260,,260,120,135,-140,,135,-270,290,-300,,290,685,SBD,,Wraps,M,3
Charlie Milnes,23,M-J,110,110,270,290,305,,305,175,185,192.5,,192.5,280,300,310,,310,807.5,SBD,,Wraps,M,1
Connor Marston,28,M-O,196,140+,385,420,442.5,,442.5,240,255,260,,260,280,297.5,320,,320,1022.5,SBD,,Wraps,M,1
Chris Hyam,24,M-O,106.9,110,300,320,-340,,320,180,190,-195,,190,290,310,320,,320,830,SBD,,Wraps,M,1
Ross Rook,35,M-O-E,90,90,365,385,,,385,180,195,,,195,260,292.5,,,292.5,872.5,SBD,,Multi-ply,M,1
Marc Barnes,27,M-O-E,119.4,125,390,-415,-415,,390,,,,,,,,,,,390,S,,Multi-ply,M,1
Nikola Bergane,15,F-T1,51.9,52,80,90,100,-110,100,35,37.5,-39,,37.5,75,85,90,95,90,227.5,SBD,,Wraps,F,1
Katy Smeathers,42,F-M1,68.9,75,95,100,105,,105,55,-60,-60,,55,110,117.5,130,,130,290,SBD,,Raw,F,1
Rhian Cooling,40,F-M1,,110+,95,102.5,115,,115,45,52.5,-55,,52.5,125,135,145,,145,312.5,SBD,,Wraps,F,1
Emily Blastock,29,F-O,66.2,67.5,125,135,-140,,135,67.5,-72.5,-72.5,,67.5,150,160,-170,,160,362.5,SBD,,Raw,F,1
Alex Wells,16,M-T2,78.7,82.5,,,,,,,,,,,170,182.5,192.5,,192.5,192.5,D,,Raw,M,1
Annjanette Saunders,52,F-M3,73.9,75,165,180,-190,,180,90,97.5,102.5,-110,102.5,180,195,205,-212.5,205,487.5,SBD,,Wraps,F,1
Karolina Piwonska,32,F-O,82.3,82.5,160,170,-175,,170,85,90,95,,95,180,190,-195,,190,455,SBD,,Wraps,F,1
Zac Williams,20,M-J,81.3,82.5,155,165,175,,175,117.5,125,-130,,125,185,200,-207.5,,200,500,SBD,,Wraps,M,3
Catherine Iredale,30,F-O,135,110+,197.5,212.5,-220,,212.5,97.5,107.5,115,120,115,190,210,-220,,210,537.5,SBD,,Wraps,F,1
Graham Dowers,58,M-M4,68.6,75,170,190,,,190,120,130,,,130,200,210,-215,,210,530,SBD,,Wraps,M,1
Nils Ziemelis,26,M-O,81.5,82.5,195,212.5,-225,,212.5,107.5,115,117.5,,117.5,200,215,225,,225,555,SBD,,Wraps,M,1
Darran Lloyd,40,M-M1,73.8,75,210,-226,226,-228,226,110,-125,-125,,110,200,-225,-225,,200,536,SBD,,Wraps,M,1
Liam Bloomer,22,M-J,80.5,82.5,200,210,215,,215,110,117.5,125,,125,200,212.5,227.5,,227.5,567.5,SBD,,Wraps,M,2
Alvis Briedis,23,M-J,82.4,82.5,205,217.5,225,,225,112.5,120,127.5,,127.5,205,220,232.5,,232.5,585,SBD,,Wraps,M,1
Simon Williams #1,28,M-O,74,75,285,302.5,310,,310,150,160,-165,,160,285,300,-307.5,,300,770,SBD,,Wraps,M,1
Lawrence Evans,29,M-O,82.2,82.5,,,,,,,,,,,,,,,,,SBD,,Wraps,M,DQ
Greta Cerepoka,20,F-J,60,60,,,,,,70,-77.5,-77.5,,70,,,,,,70,B,,Raw,F,1
Ben Gibson,21,M-J,122.6,125,170,200,210,,210,120,140,155,,155,200,230,250,,250,615,SBD,,Wraps,M,1
Jay Chadwick,31,M-O,115.7,125,175,185,195,,195,115,125,135,,135,205,215,225,,225,555,SBD,,Wraps,M,3
Ben Farmer,35,M-O,89,90,220,235,245,,245,130,140,145,,145,220,235,-250,,235,625,SBD,,Wraps,M,3
William Reed #1,29,M-O,112.7,125,200,215,-225,,215,-140,150,-160,,150,230,240,-250,,240,605,SBD,,Wraps,M,2
Andrew Beeston,35,M-O,89.7,90,280,300,315,,315,180,187.5,195,,195,235,250,262.5,,262.5,772.5,SBD,,Wraps,M,1
Michael Gray #1,33,M-O,99.8,100,272.5,-300,-300,,272.5,160,170,-180,,170,250,280,-285,,280,722.5,SBD,,Wraps,M,2
Dan Hookway,32,M-O,90.9,100,255,270,280,,280,145,155,162.5,,162.5,255,270,280,,280,722.5,SBD,,Wraps,M,1
Philip Devlin,29,M-O,100,100,230,,,,230,180,,,,180,270,280,,,280,690,SBD,,Wraps,M,3
Dominic Hill #1,26,M-O,124.9,125,245,265,275,,275,150,162.5,170,,170,280,300,310,,310,755,SBD,,Wraps,M,1
Charlie Wilson #2,27,M-O,89.6,90,260,280,-292.5,,280,160,170,175,,175,280,307.5,-317.5,,307.5,762.5,SBD,,Wraps,M,2
Hugh Haines,39,M-O,124.6,125,,,,,,160,170,-180,,170,,,,,,170,B,,Raw,M,1
