Name,WeightClassKg,Best3SquatKg,Best3BenchKg,Best3DeadliftKg,TotalKg,Event,Equipment,Sex,Division,Place
D. Eckhoff,52,79.38,52.16,117.93,249.48,SBD,Single-ply,M,Open,1
D. Reeves,67.5,158.76,102.06,165.56,426.38,SBD,Single-ply,M,Open,1
L. Rich,100,188.24,156.49,244.94,589.67,SBD,Single-ply,M,Open,1
J. Stuck,110,138.35,199.58,181.44,519.36,SBD,Single-ply,M,Open,1
Randy Schubert,125,201.85,172.37,213.19,587.4,SBD,Single-ply,M,Open,1
R. Spear,125,215.46,,,,SBD,Single-ply,M,Open,DQ
Scott Nutter,125+,294.84,163.29,238.14,696.27,SBD,Single-ply,M,Open,1
